............
----------------------------------------------------------------------
Ran 12 tests in 0.002s

OK
Name               Stmts   Miss Branch BrPart  Cover   Missing
--------------------------------------------------------------
Diplomacy.py         101      2     59      3    97%   32-33, 98->exit, 142->121, 180->176
TestDiplomacy.py      64      0      0      0   100%
--------------------------------------------------------------
TOTAL                165      2     59      3    98%
